COMPSCIX 415.2 Homework 9/Final
…
train

## # A tibble: 891 x 12
##    PassengerId Survived Pclass Name   Sex     Age SibSp Parch Ticket  Fare
##          <int>    <int>  <int> <chr>  <chr> <dbl> <int> <int> <chr>  <dbl>
##  1           1        0      3 Braun male  22.0      1     0 A/5 2  7.25
##  2           2        1      1 Cumin fema 38.0      1     0 PC 17 71.3 
##  3           3        1      3 Heikk fema 26.0      0     0 STON/  7.92
##  4           4        1      1 Futre fema 35.0      1     0 113803 53.1 
##  5           5        0      3 Allen male  35.0      0     0 373450  8.05
##  6           6        0      3 Moran male  NA        0     0 330877  8.46
##  7           7        0      1 McCar male  54.0      0     0 17463  51.9 
##  8           8        0      3 Palss male   2.00     3     1 349909 21.1 
##  9           9        1      3 Johns fema 27.0      0     2 347742 11.1 
## 10          10        1      2 Nasse fema 14.0      1     0 237736 30.1 
## # ... with 881 more rows, and 2 more variables: Cabin <chr>,
## #   Embarked <chr>
…
Use the code below to take 100 bootstrap samples of your data. Confirm that the result is a tibble with a list column of resample objects - each resample object is a bootstrap sample of the titanic dataset.

Ive displayed titanic_boot, which confirms that the result has a column of 100 resample objects.

# These two lines were already called in the first code snippet.
# library(tidyverse)
# library(modelr)

titanic_boot <- bootstrap(data = train, n = 100)

# Displaying titanic_boot confirms that the result has a column of 100 <code>resample</code> objects
titanic_boot

## # A tibble: 100 x 2
##    strap          .id  
##    <list>         <chr>
##  1 <S3: resample> 001  
##  2 <S3: resample> 002  
##  3 <S3: resample> 003  
##  4 <S3: resample> 004  
##  5 <S3: resample> 005  
##  6 <S3: resample> 006  
##  7 <S3: resample> 007  
##  8 <S3: resample> 008  
##  9 <S3: resample> 009  
## 10 <S3: resample> 010  
## # ... with 90 more rows
…
# start the loop
for(i in 1:100) {
  all_means[i] <- age_mean(titanic_boot$strap[[i]])
}

# take a look at some of the means you calculated from your samples
head(all_means)

## [1] 28.96931 29.98208 29.13638 29.66737 29.46707 29.03687

# convert to a tibble so we can use if for plotting
all_means <- tibble(all_means = all_means)
all_means

## # A tibble: 100 x 1
##    all_means
##        <dbl>
##  1      29.0
##  2      30.0
##  3      29.1
##  4      29.7
##  5      29.5
##  6      29.0
##  7      29.9
##  8      28.7
##  9      30.1
## 10      29.1
## # ... with 90 more rows
…
