COMPSCIX 415.2 Homework 5/Midterm
…
1. During what time period is this data from?

The data in the txhousing data set is from the years 2000 to 2015.

2. How many cities are represented?

There are 46 cities represented.

tx_cities <- txhousing
tx_cities %>%
  group_by(city) %>%
  summarize(count = n())

## # A tibble: 46 x 2
##    city                  count
##    <chr>                 <int>
##  1 Abilene                 187
##  2 Amarillo                187
##  3 Arlington               187
##  4 Austin                  187
##  5 Bay Area                187
##  6 Beaumont                187
##  7 Brazoria County         187
##  8 Brownsville             187
##  9 Bryan-College Station   187
## 10 Collin County           187
## # ... with 36 more rows
…
Of the months, December had the most sales.

Of the years, 2014 had the most sales.

Combined:

In July 2015, Houston had the most sales for any city for any month in any year.

tx_city_sales <- txhousing
tx_city_sales %>%
  group_by(city) %>% 
  summarize(total_sales = sum(sales)) %>% 
  arrange(desc(total_sales))

## # A tibble: 46 x 2
##    city              total_sales
##    <chr>                   <dbl>
##  1 Houston               1043999
##  2 Dallas                 816122
##  3 Austin                 373381
##  4 San Antonio            322097
##  5 Collin County          202892
##  6 Fort Bend              153088
##  7 Fort Worth             144791
##  8 NE Tarrant County      128007
##  9 Denton County          117405
## 10 Montgomery County      104589
## # ... with 36 more rows
…
tx_criteria_sales <- txhousing
tx_criteria_sales %>%
  group_by(city,year,month) %>% 
  summarize(total_sales = sum(sales)) %>% 
  arrange(desc(total_sales))

## # A tibble: 8,602 x 4
## # Groups:   city, year [736]
##    city     year month total_sales
##    <chr>   <int> <int>       <dbl>
##  1 Houston  2015     7        8945
##  2 Houston  2006     6        8628
##  3 Houston  2013     7        8468
##  4 Houston  2015     6        8449
##  5 Houston  2013     5        8439
##  6 Houston  2014     6        8391
##  7 Houston  2014     7        8391
##  8 Houston  2014     8        8167
##  9 Houston  2013     8        8155
## 10 Houston  2006     5        8040
## # ... with 8,592 more rows

4. What kind of relationship do you think exists between the number of listings and the number of sales? Check your assumption and show your work.

Unless there are extreme forces at work, I would expect listings to reflect demand, with a similar ratio of sales to listings each month.

This turned out not to be true at all. After including the ratio between the two, I dont see any simple pattern.

sales_to_listings <- txhousing
sales_to_listings %>% group_by(year, month) %>% select(year, month, listings, sales)

## # A tibble: 8,602 x 4
## # Groups:   year, month [187]
##     year month listings sales
##    <int> <int>    <dbl> <dbl>
##  1  2000     1      701  72.0
##  2  2000     2      746  98.0
##  3  2000     3      784 130  
##  4  2000     4      785  98.0
##  5  2000     5      794 141  
##  6  2000     6      780 156  
##  7  2000     7      742 152  
##  8  2000     8      765 131  
##  9  2000     9      771 104  
## 10  2000    10      764 101  
## # ... with 8,592 more rows

transmute(sales_to_listings, year, month, listings, sales, ratio = sales / listings) %>% arrange(order(ratio))

## # A tibble: 8,602 x 5
##     year month listings  sales   ratio
##    <int> <int>    <dbl>  <dbl>   <dbl>
##  1  2001     7      504   43.0  0.0853
##  2  2001    11     3213  381    0.119 
##  3  2005     7      833  145    0.174 
##  4  2009    10    22128 4150    0.188 
##  5  2012    11     1360  154    0.113 
##  6  2014    10      454   60.0  0.132 
##  7  2010     6     2156  156    0.0724
##  8  2009     3      618   37.0  0.0599
##  9  2014     5     4100  519    0.127 
## 10  2005     4       NA  547   NA     
## # ... with 8,592 more rows
5. What proportion of sales is missing for each city?

The proportion of sales is missing for each city is the number of missing sales entries per city divided by the total number of rows for that city. It turns out that all cities have the same number of sale_entries_per_city: 187.

Dividing the number of missing_sales by entries_per_city yields the proportion_of_missing_sales.

# First, find out how many sales entries there are per city.
housing_by_city <- 
txhousing %>% 
  group_by(city) %>% 
  summarize(sale_entries_per_city = n())

housing_by_city

## # A tibble: 46 x 2
##    city                  sale_entries_per_city
##    <chr>                                 <int>
##  1 Abilene                                 187
##  2 Amarillo                                187
##  3 Arlington                               187
##  4 Austin                                  187
##  5 Bay Area                                187
##  6 Beaumont                                187
##  7 Brazoria County                         187
##  8 Brownsville                             187
##  9 Bryan-College Station                   187
## 10 Collin County                           187
## # ... with 36 more rows
…
6. Looking at only the cities and months with greater than 500 sales:

sales_over_500 <- group_by(txhousing, city, year, month) %>% 
  filter(sales > 500) %>% select(city, year, month, sales) %>% 
  arrange(desc(sales))
sales_over_500

## # A tibble: 1,883 x 4
## # Groups:   city, year, month [1,883]
##    city     year month sales
##    <chr>   <int> <int> <dbl>
##  1 Houston  2015     7  8945
##  2 Houston  2006     6  8628
##  3 Houston  2013     7  8468
##  4 Houston  2015     6  8449
##  5 Houston  2013     5  8439
##  6 Houston  2014     6  8391
##  7 Houston  2014     7  8391
##  8 Houston  2014     8  8167
##  9 Houston  2013     8  8155
## 10 Houston  2006     5  8040
## # ... with 1,873 more rows
…
