COMPSCIX 415.2 Homework 8
…
train

## # A tibble: 891 x 12
##    PassengerId Survived Pclass Name   Sex     Age SibSp Parch Ticket  Fare
##          <int>    <int>  <int> <chr>  <chr> <dbl> <int> <int> <chr>  <dbl>
##  1           1        0      3 Braun male  22.0      1     0 A/5 2  7.25
##  2           2        1      1 Cumin fema 38.0      1     0 PC 17 71.3 
##  3           3        1      3 Heikk fema 26.0      0     0 STON/  7.92
##  4           4        1      1 Futre fema 35.0      1     0 113803 53.1 
##  5           5        0      3 Allen male  35.0      0     0 373450  8.05
##  6           6        0      3 Moran male  NA        0     0 330877  8.46
##  7           7        0      1 McCar male  54.0      0     0 17463  51.9 
##  8           8        0      3 Palss male   2.00     3     1 349909 21.1 
##  9           9        1      3 Johns fema 27.0      0     2 347742 11.1 
## 10          10        1      2 Nasse fema 14.0      1     0 237736 30.1 
## # ... with 881 more rows, and 2 more variables: Cabin <chr>,
## #   Embarked <chr>
…
# Pclass is also not a continous variable, so make a factor for it.
train <- train %>% mutate(Pclass = 
  factor(case_when(
                  Pclass == 1 ~ 'First',
                  Pclass == 2 ~ 'Second',
                  Pclass == 3 ~ 'Third'
                  ),
            levels = c('First', 'Second', 'Third')
         )
  )
train

## # A tibble: 891 x 12
##    PassengerId Survived Pclass Name   Sex     Age SibSp Parch Ticket  Fare
##          <int> <fct>    <fct>  <chr>  <chr> <dbl> <int> <int> <chr>  <dbl>
##  1           1 False    Third  Braun male  22.0      1     0 A/5 2  7.25
##  2           2 True     First  Cumin fema 38.0      1     0 PC 17 71.3 
##  3           3 True     Third  Heikk fema 26.0      0     0 STON/  7.92
##  4           4 True     First  Futre fema 35.0      1     0 113803 53.1 
##  5           5 False    Third  Allen male  35.0      0     0 373450  8.05
##  6           6 False    Third  Moran male  NA        0     0 330877  8.46
##  7           7 False    First  McCar male  54.0      0     0 17463  51.9 
##  8           8 False    Third  Palss male   2.00     3     1 349909 21.1 
##  9           9 True     Third  Johns fema 27.0      0     2 347742 11.1 
## 10          10 True     Second Nasse fema 14.0      1     0 237736 30.1 
## # ... with 881 more rows, and 2 more variables: Cabin <chr>,
## #   Embarked <chr>
…
# View test_set, to validate:
test_set

## # A tibble: 267 x 16
##    PassengerId Survived Pclass Name  Sex     Age SibSp Parch Ticket   Fare
##          <int> <fct>    <fct>  <chr> <chr> <dbl> <int> <int> <chr>   <dbl>
##  1           1 False    Third  Brau male  22.0      1     0 A/5 2   7.25
##  2           2 True     First  Cumi fema 38.0      1     0 PC 17  71.3 
##  3           5 False    Third  Alle male  35.0      0     0 373450   8.05
##  4          12 True     First  Bonn fema 58.0      0     0 113783  26.6 
##  5          19 False    Third  Vand fema 31.0      1     0 345763  18.0 
##  6          23 True     Third  "McG fema 15.0      0     0 330923   8.03
##  7          25 False    Third  Pals fema  8.00     3     1 349909  21.1 
##  8          28 False    First  Fort male  19.0      3     2 19950  263   
##  9          30 False    Third  Todo male  NA        0     0 349216   7.90
## 10          33 True     Third  Glyn fema NA        0     0 335677   7.75
## # ... with 257 more rows, and 6 more variables: Cabin <chr>,
## #   Embarked <chr>, logit_pp <dbl>, tree_pp <dbl>, class_logit <fct>,
## #   class_tree <fct>
…
